<?xml version="1.0" encoding="UTF-8"?>
<glyph name="Aacute" format="1">
  <advance width="964"/>
  <unicode hex="00C1"/>
  <outline>
    <contour>
      <point x="602" y="0" type="line"/>
      <point x="602" y="81" type="line"/>
      <point x="668" y="81" type="line"/>
      <point x="621" y="219" type="line"/>
      <point x="340" y="219" type="line"/>
      <point x="291" y="81" type="line"/>
      <point x="357" y="81" type="line"/>
      <point x="357" y="0" type="line"/>
      <point x="70" y="0" type="line"/>
      <point x="70" y="81" type="line"/>
      <point x="193" y="81" type="line"/>
      <point x="395" y="648" type="line"/>
      <point x="330" y="648" type="line"/>
      <point x="330" y="729" type="line"/>
      <point x="544" y="729" type="line"/>
      <point x="772" y="81" type="line"/>
      <point x="894" y="81" type="line"/>
      <point x="894" y="0" type="line"/>
    </contour>
    <contour>
      <point x="595" y="297" type="line"/>
      <point x="483" y="629" type="line"/>
      <point x="363" y="297" type="line"/>
    </contour>
    <contour>
      <point x="531" y="939" type="line"/>
      <point x="644" y="939" type="line"/>
      <point x="495" y="791" type="line"/>
      <point x="435" y="791" type="line"/>
    </contour>
  </outline>
</glyph>
