<?xml version="1.0" encoding="UTF-8"?>
<glyph name="afii10195" format="1">
  <advance width="556"/>
  <unicode hex="0473"/>
  <outline>
    <contour>
      <point x="272" y="539" type="qcurve" smooth="yes"/>
      <point x="385" y="539"/>
      <point x="510" y="390"/>
      <point x="510" y="254" type="qcurve" smooth="yes"/>
      <point x="510" y="125"/>
      <point x="383" y="-23"/>
      <point x="273" y="-23" type="qcurve" smooth="yes"/>
      <point x="161" y="-23"/>
      <point x="36" y="126"/>
      <point x="36" y="390"/>
      <point x="162" y="539"/>
    </contour>
    <contour>
      <point x="273" y="462" type="qcurve" smooth="yes"/>
      <point x="203" y="462"/>
      <point x="123" y="353"/>
      <point x="123" y="163"/>
      <point x="203" y="54"/>
      <point x="273" y="54" type="qcurve" smooth="yes"/>
      <point x="342" y="54"/>
      <point x="423" y="163"/>
      <point x="423" y="255" type="qcurve" smooth="yes"/>
      <point x="423" y="352"/>
      <point x="344" y="462"/>
    </contour>
    <contour>
      <point x="209" y="302" type="qcurve" smooth="yes"/>
      <point x="232" y="302"/>
      <point x="311" y="268"/>
      <point x="329" y="268" type="qcurve" smooth="yes"/>
      <point x="351" y="268"/>
      <point x="362" y="302" type="qcurve"/>
      <point x="414" y="302" type="line"/>
      <point x="401" y="208"/>
      <point x="334" y="208" type="qcurve" smooth="yes"/>
      <point x="317" y="208"/>
      <point x="226" y="242"/>
      <point x="214" y="242" type="qcurve" smooth="yes"/>
      <point x="193" y="242"/>
      <point x="184" y="209" type="qcurve"/>
      <point x="132" y="209" type="line"/>
      <point x="139" y="254"/>
      <point x="179" y="302"/>
    </contour>
  </outline>
</glyph>
