<?xml version="1.0" encoding="UTF-8"?>
<glyph name="bn_g_l_uukaar" format="1">
  <advance width="628"/>
  <outline>
    <contour>
      <point x="573" y="136" type="qcurve"/>
      <point x="573" y="69"/>
      <point x="591" y="3" type="qcurve"/>
      <point x="544" y="-7" type="line"/>
      <point x="521" y="88"/>
      <point x="521" y="253" type="qcurve" smooth="yes"/>
      <point x="521" y="286" type="line" smooth="yes"/>
      <point x="521" y="307"/>
      <point x="522" y="317" type="qcurve"/>
      <point x="428" y="296" type="line"/>
      <point x="428" y="-32" type="line"/>
      <point x="378" y="-32" type="line"/>
      <point x="378" y="-7"/>
      <point x="377" y="3" type="qcurve"/>
      <point x="377" y="8" type="line"/>
      <point x="375" y="40"/>
      <point x="360" y="68"/>
      <point x="343" y="68" type="qcurve"/>
      <point x="317" y="66"/>
      <point x="317" y="35" type="qcurve" smooth="yes"/>
      <point x="317" y="20"/>
      <point x="324" y="8" type="qcurve"/>
      <point x="279" y="-9" type="line"/>
      <point x="268" y="35"/>
      <point x="222" y="87"/>
      <point x="196" y="87" type="qcurve" smooth="yes"/>
      <point x="167" y="87"/>
      <point x="131" y="56"/>
      <point x="131" y="31" type="qcurve" smooth="yes"/>
      <point x="131" y="9"/>
      <point x="156" y="-11"/>
      <point x="191" y="-15" type="qcurve"/>
      <point x="209" y="-62" type="line"/>
      <point x="196" y="-64"/>
      <point x="191" y="-65" type="qcurve" smooth="yes"/>
      <point x="187" y="-65"/>
      <point x="185" y="-66" type="qcurve"/>
      <point x="139" y="-66"/>
      <point x="80" y="-11"/>
      <point x="80" y="33" type="qcurve" smooth="yes"/>
      <point x="80" y="69"/>
      <point x="147" y="139"/>
      <point x="194" y="139" type="qcurve" smooth="yes"/>
      <point x="243" y="139"/>
      <point x="284" y="90" type="qcurve"/>
      <point x="296" y="119"/>
      <point x="336" y="119" type="qcurve" smooth="yes"/>
      <point x="352" y="119"/>
      <point x="377" y="94" type="qcurve"/>
      <point x="377" y="355" type="line"/>
      <point x="291" y="510"/>
      <point x="197" y="510" type="qcurve" smooth="yes"/>
      <point x="164" y="510"/>
      <point x="94" y="455"/>
      <point x="94" y="420" type="qcurve" smooth="yes"/>
      <point x="94" y="404"/>
      <point x="105" y="404" type="qcurve" smooth="yes"/>
      <point x="114" y="404"/>
      <point x="193" y="430"/>
      <point x="201" y="430" type="qcurve" smooth="yes"/>
      <point x="235" y="430"/>
      <point x="279" y="389"/>
      <point x="279" y="355" type="qcurve" smooth="yes"/>
      <point x="279" y="322"/>
      <point x="210" y="253" type="qcurve"/>
      <point x="168" y="213" type="line"/>
      <point x="126" y="245" type="line"/>
      <point x="182" y="299" type="line" smooth="yes"/>
      <point x="225" y="340"/>
      <point x="228" y="360" type="qcurve"/>
      <point x="228" y="384"/>
      <point x="196" y="384" type="qcurve" smooth="yes"/>
      <point x="192" y="384"/>
      <point x="114" y="353"/>
      <point x="101" y="353" type="qcurve" smooth="yes"/>
      <point x="75" y="353"/>
      <point x="43" y="390"/>
      <point x="43" y="418" type="qcurve" smooth="yes"/>
      <point x="43" y="467"/>
      <point x="130" y="561"/>
      <point x="197" y="561" type="qcurve" smooth="yes"/>
      <point x="254" y="561"/>
      <point x="331" y="508"/>
      <point x="377" y="436" type="qcurve"/>
      <point x="377" y="635" type="line"/>
      <point x="428" y="635" type="line"/>
      <point x="428" y="558" type="line"/>
      <point x="635" y="558" type="line"/>
      <point x="635" y="507" type="line"/>
      <point x="428" y="507" type="line"/>
      <point x="428" y="350" type="line"/>
      <point x="492" y="365"/>
      <point x="547" y="371" type="qcurve"/>
      <point x="578" y="343" type="line"/>
      <point x="578" y="308"/>
      <point x="572" y="212"/>
      <point x="572" y="175" type="qcurve" smooth="yes"/>
      <point x="572" y="149"/>
    </contour>
  </outline>
</glyph>
