<?xml version="1.0" encoding="UTF-8"?>
<glyph name="bn_post_k_ra" format="1">
  <advance width="153"/>
  <outline>
    <contour>
      <point x="-219" y="240" type="qcurve" smooth="yes"/>
      <point x="-219" y="232"/>
      <point x="-213" y="221" type="qcurve"/>
      <point x="-249" y="186" type="line"/>
      <point x="-269" y="209"/>
      <point x="-269" y="240" type="qcurve" smooth="yes"/>
      <point x="-269" y="291"/>
      <point x="-164" y="394"/>
      <point x="-118" y="394" type="qcurve" smooth="yes"/>
      <point x="-82" y="394"/>
      <point x="-36" y="335"/>
      <point x="-36" y="290" type="qcurve"/>
      <point x="-20" y="304"/>
      <point x="-8" y="313"/>
      <point x="35" y="328"/>
      <point x="62" y="328" type="qcurve" smooth="yes"/>
      <point x="96" y="328"/>
      <point x="144" y="271"/>
      <point x="144" y="243" type="qcurve" smooth="yes"/>
      <point x="144" y="200"/>
      <point x="108" y="171" type="qcurve"/>
      <point x="74" y="206" type="line"/>
      <point x="92" y="221"/>
      <point x="92" y="242" type="qcurve" smooth="yes"/>
      <point x="92" y="258"/>
      <point x="65" y="277"/>
      <point x="43" y="277" type="qcurve" smooth="yes"/>
      <point x="17" y="277"/>
      <point x="-36" y="211" type="qcurve"/>
      <point x="-36" y="-34" type="line"/>
      <point x="-87" y="-34" type="line"/>
      <point x="-87" y="16" type="line"/>
      <point x="-136" y="58"/>
      <point x="-195" y="58" type="qcurve" smooth="yes"/>
      <point x="-203" y="58"/>
      <point x="-289" y="46"/>
      <point x="-296" y="46" type="qcurve" smooth="yes"/>
      <point x="-332" y="46"/>
      <point x="-386" y="80"/>
      <point x="-413" y="130"/>
      <point x="-425" y="173"/>
      <point x="-425" y="189" type="qcurve" smooth="yes"/>
      <point x="-425" y="230"/>
      <point x="-398" y="295" type="qcurve"/>
      <point x="-358" y="269" type="line"/>
      <point x="-374" y="229"/>
      <point x="-374" y="179" type="qcurve" smooth="yes"/>
      <point x="-374" y="170"/>
      <point x="-366" y="147"/>
      <point x="-349" y="116"/>
      <point x="-308" y="96"/>
      <point x="-281" y="96" type="qcurve" smooth="yes"/>
      <point x="-273" y="96"/>
      <point x="-191" y="109"/>
      <point x="-179" y="109" type="qcurve" smooth="yes"/>
      <point x="-128" y="109"/>
      <point x="-87" y="80" type="qcurve"/>
      <point x="-87" y="296" type="line" smooth="yes"/>
      <point x="-87" y="343"/>
      <point x="-124" y="343" type="qcurve" smooth="yes"/>
      <point x="-152" y="343"/>
      <point x="-219" y="271"/>
    </contour>
    <contour>
      <point x="-14" y="507" type="line"/>
      <point x="-14" y="558" type="line"/>
      <point x="157" y="558" type="line"/>
      <point x="157" y="507" type="line"/>
    </contour>
  </outline>
</glyph>
