<?xml version="1.0" encoding="UTF-8"?>
<glyph name="bn_s_tta" format="1">
  <advance width="759"/>
  <outline>
    <contour>
      <point x="478" y="82" type="qcurve" smooth="yes"/>
      <point x="541" y="82"/>
      <point x="638" y="232"/>
      <point x="638" y="307" type="qcurve" smooth="yes"/>
      <point x="638" y="345"/>
      <point x="608" y="345" type="qcurve" smooth="yes"/>
      <point x="594" y="345"/>
      <point x="569" y="329" type="qcurve"/>
      <point x="539" y="363" type="line"/>
      <point x="581" y="396"/>
      <point x="612" y="396" type="qcurve" smooth="yes"/>
      <point x="642" y="396"/>
      <point x="689" y="336"/>
      <point x="689" y="305" type="qcurve" smooth="yes"/>
      <point x="689" y="248"/>
      <point x="635" y="121"/>
      <point x="538" y="31"/>
      <point x="484" y="31" type="qcurve" smooth="yes"/>
      <point x="452" y="31"/>
      <point x="409" y="54"/>
      <point x="384" y="87" type="qcurve"/>
      <point x="384" y="240" type="line"/>
      <point x="363" y="285"/>
      <point x="311" y="348"/>
      <point x="297" y="348" type="qcurve" smooth="yes"/>
      <point x="277" y="348"/>
      <point x="232" y="296"/>
      <point x="199" y="233"/>
      <point x="149" y="181"/>
      <point x="125" y="181" type="qcurve" smooth="yes"/>
      <point x="76" y="181"/>
      <point x="12" y="287" type="qcurve"/>
      <point x="56" y="311" type="line"/>
      <point x="93" y="232"/>
      <point x="120" y="232" type="qcurve" smooth="yes"/>
      <point x="139" y="232"/>
      <point x="185" y="299"/>
      <point x="189" y="320" type="qcurve"/>
      <point x="178" y="395"/>
      <point x="112" y="450"/>
      <point x="17" y="470" type="qcurve"/>
      <point x="17" y="507" type="line"/>
      <point x="-33" y="507" type="line"/>
      <point x="-33" y="558" type="line"/>
      <point x="644" y="558" type="line"/>
      <point x="644" y="560"/>
      <point x="645" y="568"/>
      <point x="646" y="570" type="qcurve"/>
      <point x="646" y="576"/>
      <point x="649" y="585" type="qcurve"/>
      <point x="649" y="637"/>
      <point x="558" y="637" type="qcurve"/>
      <point x="407" y="627" type="line"/>
      <point x="351" y="627"/>
      <point x="282" y="687"/>
      <point x="282" y="736" type="qcurve" smooth="yes"/>
      <point x="282" y="766"/>
      <point x="315" y="807" type="qcurve"/>
      <point x="357" y="778" type="line"/>
      <point x="335" y="746" type="line"/>
      <point x="335" y="743"/>
      <point x="334" y="731"/>
      <point x="333" y="729" type="qcurve"/>
      <point x="333" y="724" type="line" smooth="yes"/>
      <point x="333" y="677"/>
      <point x="430" y="677" type="qcurve"/>
      <point x="583" y="688" type="line"/>
      <point x="634" y="688"/>
      <point x="702" y="621"/>
      <point x="702" y="566" type="qcurve" smooth="yes"/>
      <point x="702" y="558" type="line"/>
      <point x="769" y="558" type="line"/>
      <point x="769" y="507" type="line"/>
      <point x="435" y="507" type="line"/>
      <point x="435" y="105" type="line"/>
      <point x="447" y="82"/>
    </contour>
    <contour>
      <point x="296" y="399" type="qcurve" smooth="yes"/>
      <point x="335" y="399"/>
      <point x="384" y="330" type="qcurve"/>
      <point x="384" y="507" type="line"/>
      <point x="99" y="507" type="line"/>
      <point x="195" y="481"/>
      <point x="231" y="370" type="qcurve"/>
      <point x="262" y="399"/>
    </contour>
  </outline>
</glyph>
