<?xml version="1.0" encoding="UTF-8"?>
<glyph name="cent" format="1">
  <advance width="556"/>
  <unicode hex="00A2"/>
  <outline>
    <contour>
      <point x="312" y="462" type="qcurve"/>
      <point x="312" y="53" type="line"/>
      <point x="408" y="64"/>
      <point x="426" y="180" type="qcurve"/>
      <point x="510" y="180" type="line"/>
      <point x="505" y="90"/>
      <point x="399" y="-19"/>
      <point x="312" y="-23" type="qcurve"/>
      <point x="312" y="-120" type="line"/>
      <point x="270" y="-120" type="line"/>
      <point x="270" y="-22" type="line"/>
      <point x="169" y="-13"/>
      <point x="52" y="134"/>
      <point x="52" y="253" type="qcurve" smooth="yes"/>
      <point x="52" y="375"/>
      <point x="169" y="527"/>
      <point x="270" y="538" type="qcurve"/>
      <point x="270" y="628" type="line"/>
      <point x="312" y="628" type="line"/>
      <point x="312" y="539" type="line"/>
      <point x="400" y="533"/>
      <point x="499" y="434"/>
      <point x="504" y="348" type="qcurve"/>
      <point x="420" y="348" type="line"/>
      <point x="415" y="398"/>
      <point x="358" y="458"/>
    </contour>
    <contour>
      <point x="270" y="55" type="qcurve"/>
      <point x="270" y="461" type="line"/>
      <point x="139" y="437"/>
      <point x="139" y="253" type="qcurve" smooth="yes"/>
      <point x="139" y="168"/>
      <point x="208" y="65"/>
    </contour>
  </outline>
</glyph>
