<?xml version="1.0" encoding="UTF-8"?>
<glyph name="eight" format="1">
  <advance width="593"/>
  <unicode hex="0038"/>
  <outline>
    <contour>
      <point x="413" y="373" type="qcurve"/>
      <point x="535" y="315"/>
      <point x="535" y="196" type="qcurve" smooth="yes"/>
      <point x="535" y="99"/>
      <point x="402" y="-23"/>
      <point x="192" y="-23"/>
      <point x="59" y="100"/>
      <point x="59" y="197" type="qcurve" smooth="yes"/>
      <point x="59" y="315"/>
      <point x="180" y="373" type="qcurve"/>
      <point x="126" y="407"/>
      <point x="84" y="471"/>
      <point x="84" y="520" type="qcurve" smooth="yes"/>
      <point x="84" y="603"/>
      <point x="203" y="709"/>
      <point x="391" y="709"/>
      <point x="510" y="603"/>
      <point x="510" y="520" type="qcurve" smooth="yes"/>
      <point x="510" y="470"/>
      <point x="468" y="406"/>
    </contour>
    <contour>
      <point x="174" y="519" type="qcurve" smooth="yes"/>
      <point x="174" y="469"/>
      <point x="241" y="408"/>
      <point x="297" y="408" type="qcurve" smooth="yes"/>
      <point x="352" y="408"/>
      <point x="420" y="468"/>
      <point x="420" y="518" type="qcurve" smooth="yes"/>
      <point x="420" y="570"/>
      <point x="353" y="631"/>
      <point x="241" y="631"/>
      <point x="174" y="570"/>
    </contour>
    <contour>
      <point x="295" y="55" type="qcurve" smooth="yes"/>
      <point x="362" y="55"/>
      <point x="445" y="132"/>
      <point x="445" y="195" type="qcurve" smooth="yes"/>
      <point x="445" y="257"/>
      <point x="363" y="334"/>
      <point x="231" y="334"/>
      <point x="149" y="257"/>
      <point x="149" y="133"/>
      <point x="230" y="55"/>
    </contour>
  </outline>
</glyph>
