<?xml version="1.0" encoding="UTF-8"?>
<glyph name="etatonos" format="1">
  <advance width="547"/>
  <unicode hex="03AE"/>
  <outline>
    <component base="eta"/>
    <component base="tonos" xOffset="133" yOffset="6"/>
  </outline>
</glyph>
