<?xml version="1.0" encoding="UTF-8"?>
<glyph name="Sacute" format="1">
  <advance width="808"/>
  <unicode hex="015A"/>
  <outline>
    <contour>
      <point x="430" y="941" type="line"/>
      <point x="543" y="941" type="line"/>
      <point x="394" y="793" type="line"/>
      <point x="334" y="793" type="line"/>
    </contour>
    <contour>
      <point x="410" y="59" type="qcurve" smooth="yes"/>
      <point x="466" y="59"/>
      <point x="544" y="85"/>
      <point x="581" y="127"/>
      <point x="596" y="168"/>
      <point x="596" y="191" type="qcurve" smooth="yes"/>
      <point x="596" y="273"/>
      <point x="462" y="309" type="qcurve" smooth="yes"/>
      <point x="281" y="357" type="line" smooth="yes"/>
      <point x="138" y="395"/>
      <point x="138" y="527" type="qcurve" smooth="yes"/>
      <point x="138" y="626"/>
      <point x="277" y="741"/>
      <point x="397" y="741" type="qcurve" smooth="yes"/>
      <point x="508" y="741"/>
      <point x="576" y="695" type="qcurve"/>
      <point x="576" y="747" type="line"/>
      <point x="670" y="747" type="line"/>
      <point x="670" y="515" type="line"/>
      <point x="664" y="515" type="line"/>
      <point x="576" y="515" type="line"/>
      <point x="575" y="586"/>
      <point x="481" y="663"/>
      <point x="394" y="663" type="qcurve" smooth="yes"/>
      <point x="320" y="663"/>
      <point x="231" y="595"/>
      <point x="231" y="540" type="qcurve" smooth="yes"/>
      <point x="231" y="498"/>
      <point x="285" y="450"/>
      <point x="351" y="432" type="qcurve" smooth="yes"/>
      <point x="534" y="383" type="line" smooth="yes"/>
      <point x="608" y="363"/>
      <point x="689" y="267"/>
      <point x="689" y="200" type="qcurve" smooth="yes"/>
      <point x="689" y="171"/>
      <point x="674" y="114"/>
      <point x="634" y="53"/>
      <point x="572" y="7"/>
      <point x="469" y="-23"/>
      <point x="404" y="-23" type="qcurve" smooth="yes"/>
      <point x="363" y="-23"/>
      <point x="288" y="-10"/>
      <point x="210" y="25"/>
      <point x="154" y="80"/>
      <point x="117" y="172"/>
      <point x="116" y="232" type="qcurve"/>
      <point x="204" y="232" type="line"/>
      <point x="204" y="227" type="line" smooth="yes"/>
      <point x="204" y="196"/>
      <point x="223" y="142"/>
      <point x="266" y="90"/>
      <point x="351" y="59"/>
    </contour>
  </outline>
</glyph>
