<?xml version="1.0" encoding="UTF-8"?>
<glyph name="triangleleft" format="1">
  <advance width="636"/>
  <unicode hex="22B3"/>
  <outline>
    <contour>
      <point x="62" y="6" type="line"/>
      <point x="62" y="508" type="line"/>
      <point x="574" y="267" type="line"/>
      <point x="574" y="247" type="line"/>
    </contour>
    <contour>
      <point x="134" y="121" type="line"/>
      <point x="433" y="257" type="line"/>
      <point x="134" y="395" type="line"/>
    </contour>
  </outline>
</glyph>
