<?xml version="1.0" encoding="UTF-8"?>
<glyph name="twosuperior" format="1">
  <advance width="351"/>
  <unicode hex="00B2"/>
  <outline>
    <contour>
      <point x="178" y="656" type="qcurve" smooth="yes"/>
      <point x="152" y="656"/>
      <point x="116" y="638"/>
      <point x="99" y="606"/>
      <point x="92" y="577"/>
      <point x="91" y="557" type="qcurve"/>
      <point x="29" y="557" type="line"/>
      <point x="33" y="709"/>
      <point x="180" y="709" type="qcurve" smooth="yes"/>
      <point x="244" y="709"/>
      <point x="326" y="639"/>
      <point x="326" y="583" type="qcurve" smooth="yes"/>
      <point x="326" y="501"/>
      <point x="230" y="454" type="qcurve"/>
      <point x="167" y="422" type="line" smooth="yes"/>
      <point x="134" y="405"/>
      <point x="103" y="370"/>
      <point x="94" y="342" type="qcurve"/>
      <point x="323" y="342" type="line"/>
      <point x="323" y="284" type="line"/>
      <point x="19" y="284" type="line"/>
      <point x="23" y="357"/>
      <point x="74" y="433"/>
      <point x="146" y="471" type="qcurve" smooth="yes"/>
      <point x="204" y="502" type="line" smooth="yes"/>
      <point x="263" y="534"/>
      <point x="263" y="581" type="qcurve" smooth="yes"/>
      <point x="263" y="613"/>
      <point x="214" y="656"/>
    </contour>
  </outline>
</glyph>
