<?xml version="1.0" encoding="UTF-8"?>
<glyph name="uni0A39_uni0A4D.blwf_uni0A42.blws" format="1">
  <advance width="9"/>
  <outline>
    <contour>
      <point x="-426" y="-350" type="line"/>
      <point x="-426" y="-301" type="line"/>
      <point x="-69" y="-301" type="line"/>
      <point x="-69" y="-350" type="line"/>
    </contour>
    <contour>
      <point x="-430" y="-462" type="line"/>
      <point x="-430" y="-413" type="line"/>
      <point x="-73" y="-413" type="line"/>
      <point x="-73" y="-462" type="line"/>
    </contour>
    <contour>
      <point x="-379" y="-96" type="qcurve" smooth="yes"/>
      <point x="-379" y="-123"/>
      <point x="-302" y="-197"/>
      <point x="-248" y="-197" type="qcurve" smooth="yes"/>
      <point x="-218" y="-197"/>
      <point x="-185" y="-147"/>
      <point x="-185" y="-104" type="qcurve" smooth="yes"/>
      <point x="-185" y="-4" type="line"/>
      <point x="-126" y="-4" type="line"/>
      <point x="-126" y="-108" type="line" smooth="yes"/>
      <point x="-126" y="-184"/>
      <point x="-206" y="-250"/>
      <point x="-255" y="-250" type="qcurve" smooth="yes"/>
      <point x="-327" y="-250"/>
      <point x="-428" y="-139"/>
      <point x="-428" y="-103" type="qcurve" smooth="yes"/>
      <point x="-428" y="-34"/>
      <point x="-346" y="-34" type="qcurve" smooth="yes"/>
      <point x="-308" y="-34"/>
      <point x="-308" y="-49" type="qcurve" smooth="yes"/>
      <point x="-308" y="-54"/>
      <point x="-315" y="-63"/>
      <point x="-318" y="-63" type="qcurve" smooth="yes"/>
      <point x="-341" y="-65"/>
      <point x="-364" y="-70"/>
      <point x="-379" y="-83"/>
    </contour>
  </outline>
</glyph>
