<?xml version="1.0" encoding="UTF-8"?>
<glyph name="uni0AA2_uni0ABC.nukt" format="1">
  <advance width="524"/>
  <outline>
    <contour>
      <point x="164" y="-98" type="qcurve" smooth="yes"/>
      <point x="193" y="-98"/>
      <point x="233" y="-140"/>
      <point x="233" y="-170" type="qcurve" smooth="yes"/>
      <point x="233" y="-189"/>
      <point x="200" y="-240"/>
      <point x="164" y="-240" type="qcurve" smooth="yes"/>
      <point x="123" y="-240"/>
      <point x="89" y="-191"/>
      <point x="89" y="-170" type="qcurve" smooth="yes"/>
      <point x="89" y="-131"/>
      <point x="142" y="-98"/>
    </contour>
    <contour>
      <point x="262" y="-41" type="qcurve" smooth="yes"/>
      <point x="0" y="-41"/>
      <point x="0" y="152" type="qcurve" smooth="yes"/>
      <point x="0" y="198"/>
      <point x="62" y="262"/>
      <point x="150" y="294"/>
      <point x="239" y="320"/>
      <point x="301" y="353"/>
      <point x="301" y="377" type="qcurve" smooth="yes"/>
      <point x="301" y="428"/>
      <point x="193" y="428" type="qcurve" smooth="yes"/>
      <point x="143" y="428"/>
      <point x="76" y="396" type="qcurve"/>
      <point x="78" y="499" type="line"/>
      <point x="125" y="513"/>
      <point x="200" y="513" type="qcurve"/>
      <point x="318" y="510"/>
      <point x="417" y="427"/>
      <point x="417" y="371" type="qcurve" smooth="yes"/>
      <point x="417" y="369" type="line" smooth="yes"/>
      <point x="417" y="328"/>
      <point x="373" y="273"/>
      <point x="307" y="250"/>
      <point x="230" y="229"/>
      <point x="164" y="213"/>
      <point x="120" y="173"/>
      <point x="120" y="142" type="qcurve" smooth="yes"/>
      <point x="120" y="96"/>
      <point x="182" y="39"/>
      <point x="229" y="39" type="qcurve" smooth="yes"/>
      <point x="232" y="39"/>
      <point x="240" y="41" type="qcurve"/>
      <point x="240" y="81"/>
      <point x="263" y="136"/>
      <point x="302" y="162"/>
      <point x="339" y="173"/>
      <point x="359" y="173" type="qcurve" smooth="yes"/>
      <point x="482" y="173"/>
      <point x="482" y="77" type="qcurve"/>
      <point x="481" y="42"/>
      <point x="409" y="-14"/>
      <point x="310" y="-41"/>
    </contour>
  </outline>
</glyph>
