<?xml version="1.0" encoding="UTF-8"?>
<glyph name="uni0926_094D.half_0928.pres" format="1">
  <advance width="488"/>
  <outline>
    <contour>
      <point x="41" y="301" type="qcurve" smooth="yes"/>
      <point x="41" y="362"/>
      <point x="107" y="447"/>
      <point x="159" y="447" type="qcurve" smooth="yes"/>
      <point x="346" y="447" type="line"/>
      <point x="346" y="541" type="line"/>
      <point x="0" y="541" type="line"/>
      <point x="0" y="613" type="line"/>
      <point x="488" y="613" type="line"/>
      <point x="488" y="541" type="line"/>
      <point x="417" y="541" type="line"/>
      <point x="417" y="376" type="line"/>
      <point x="183" y="376" type="line" smooth="yes"/>
      <point x="153" y="376"/>
      <point x="112" y="333"/>
      <point x="112" y="301" type="qcurve" smooth="yes"/>
      <point x="112" y="172"/>
      <point x="312" y="172" type="qcurve"/>
      <point x="312" y="195"/>
      <point x="311" y="200" type="qcurve"/>
      <point x="311" y="266"/>
      <point x="377" y="266" type="qcurve" smooth="yes"/>
      <point x="407" y="266"/>
      <point x="436" y="218"/>
      <point x="436" y="200" type="qcurve" smooth="yes"/>
      <point x="436" y="152"/>
      <point x="393" y="125" type="qcurve"/>
      <point x="406" y="76"/>
      <point x="484" y="-23" type="qcurve"/>
      <point x="389" y="-23" type="line"/>
      <point x="359" y="34" type="line"/>
      <point x="228" y="-28" type="line"/>
      <point x="231" y="-33"/>
      <point x="263" y="-87"/>
      <point x="268" y="-105" type="qcurve"/>
      <point x="268" y="-128"/>
      <point x="240" y="-128" type="qcurve" smooth="yes"/>
      <point x="219" y="-128"/>
      <point x="105" y="-65"/>
      <point x="104" y="-51" type="qcurve"/>
      <point x="104" y="-10"/>
      <point x="121" y="-1" type="qcurve" smooth="yes"/>
      <point x="332" y="100" type="line"/>
      <point x="262" y="100"/>
      <point x="154" y="127"/>
      <point x="92" y="167"/>
      <point x="54" y="224"/>
      <point x="41" y="274"/>
    </contour>
  </outline>
</glyph>
