<?xml version="1.0" encoding="UTF-8"?>
<glyph name="uni0BCC" format="1">
  <advance width="1706"/>
  <unicode hex="0BCC"/>
  <outline>
    <contour>
      <point x="810" y="215" type="qcurve" smooth="yes"/>
      <point x="810" y="328"/>
      <point x="956" y="482"/>
      <point x="1070" y="482" type="qcurve" smooth="yes"/>
      <point x="1121" y="482"/>
      <point x="1214" y="424"/>
      <point x="1239" y="385" type="qcurve"/>
      <point x="1247" y="427"/>
      <point x="1319" y="482"/>
      <point x="1372" y="482" type="qcurve" smooth="yes"/>
      <point x="1632" y="482" type="line"/>
      <point x="1632" y="428" type="line"/>
      <point x="1488" y="428" type="line"/>
      <point x="1488" y="-2" type="line"/>
      <point x="1433" y="-2" type="line"/>
      <point x="1433" y="428" type="line"/>
      <point x="1366" y="428" type="line" smooth="yes"/>
      <point x="1326" y="428"/>
      <point x="1277" y="354"/>
      <point x="1277" y="307" type="qcurve" smooth="yes"/>
      <point x="1277" y="-2" type="line"/>
      <point x="1222" y="-2" type="line"/>
      <point x="1222" y="283" type="line" smooth="yes"/>
      <point x="1222" y="338"/>
      <point x="1120" y="428"/>
      <point x="1064" y="428" type="qcurve" smooth="yes"/>
      <point x="981" y="428"/>
      <point x="864" y="314"/>
      <point x="864" y="234" type="qcurve"/>
      <point x="917" y="290"/>
      <point x="993" y="290" type="qcurve" smooth="yes"/>
      <point x="1061" y="290"/>
      <point x="1142" y="206"/>
      <point x="1142" y="137" type="qcurve" smooth="yes"/>
      <point x="1142" y="76"/>
      <point x="1053" y="-2"/>
      <point x="991" y="-2" type="qcurve" smooth="yes"/>
      <point x="904" y="-2"/>
      <point x="810" y="119"/>
    </contour>
    <contour>
      <point x="1089" y="137" type="qcurve" smooth="yes"/>
      <point x="1089" y="178"/>
      <point x="1030" y="240"/>
      <point x="991" y="240" type="qcurve" smooth="yes"/>
      <point x="955" y="240"/>
      <point x="896" y="178"/>
      <point x="896" y="143" type="qcurve" smooth="yes"/>
      <point x="896" y="104"/>
      <point x="954" y="54"/>
      <point x="996" y="54" type="qcurve" smooth="yes"/>
      <point x="1036" y="54"/>
      <point x="1089" y="100"/>
    </contour>
    <contour>
      <point x="303" y="725" type="qcurve" smooth="yes"/>
      <point x="197" y="725"/>
      <point x="67" y="530"/>
      <point x="67" y="382" type="qcurve" smooth="yes"/>
      <point x="67" y="266"/>
      <point x="115" y="162" type="qcurve"/>
      <point x="123" y="221"/>
      <point x="207" y="295"/>
      <point x="271" y="295" type="qcurve" smooth="yes"/>
      <point x="339" y="295"/>
      <point x="412" y="209"/>
      <point x="412" y="137" type="qcurve" smooth="yes"/>
      <point x="412" y="76"/>
      <point x="328" y="-2"/>
      <point x="266" y="-2" type="qcurve" smooth="yes"/>
      <point x="181" y="-2"/>
      <point x="63" y="108"/>
      <point x="12" y="275"/>
      <point x="12" y="379" type="qcurve" smooth="yes"/>
      <point x="12" y="488"/>
      <point x="73" y="664"/>
      <point x="207" y="777"/>
      <point x="303" y="777" type="qcurve" smooth="yes"/>
      <point x="424" y="777"/>
      <point x="551" y="641"/>
      <point x="551" y="518" type="qcurve" smooth="yes"/>
      <point x="551" y="-2" type="line"/>
      <point x="496" y="-2" type="line"/>
      <point x="496" y="523" type="line" smooth="yes"/>
      <point x="496" y="616"/>
      <point x="394" y="725"/>
    </contour>
    <contour>
      <point x="277" y="246" type="qcurve" smooth="yes"/>
      <point x="235" y="246"/>
      <point x="180" y="183"/>
      <point x="180" y="138" type="qcurve" smooth="yes"/>
      <point x="180" y="96"/>
      <point x="225" y="47"/>
      <point x="266" y="47" type="qcurve" smooth="yes"/>
      <point x="300" y="47"/>
      <point x="357" y="109"/>
      <point x="357" y="143" type="qcurve" smooth="yes"/>
      <point x="357" y="185"/>
      <point x="312" y="246"/>
    </contour>
  </outline>
</glyph>
