<?xml version="1.0" encoding="UTF-8"?>
<glyph name="uni0231" format="1">
  <advance width="556"/>
  <unicode hex="0231"/>
  <outline>
    <contour>
      <point x="409" y="793" type="line"/>
      <point x="409" y="723" type="line"/>
      <point x="135" y="723" type="line"/>
      <point x="135" y="793" type="line"/>
    </contour>
    <contour>
      <point x="324" y="683" type="line"/>
      <point x="324" y="579" type="line"/>
      <point x="220" y="579" type="line"/>
      <point x="220" y="683" type="line"/>
    </contour>
    <contour>
      <point x="339" y="539" type="qcurve" smooth="yes"/>
      <point x="452" y="539"/>
      <point x="577" y="390"/>
      <point x="577" y="254" type="qcurve" smooth="yes"/>
      <point x="577" y="125"/>
      <point x="450" y="-23"/>
      <point x="340" y="-23" type="qcurve" smooth="yes"/>
      <point x="228" y="-23"/>
      <point x="103" y="126"/>
      <point x="103" y="390"/>
      <point x="229" y="539"/>
    </contour>
    <contour>
      <point x="340" y="462" type="qcurve" smooth="yes"/>
      <point x="270" y="462"/>
      <point x="190" y="353"/>
      <point x="190" y="163"/>
      <point x="270" y="54"/>
      <point x="340" y="54" type="qcurve" smooth="yes"/>
      <point x="409" y="54"/>
      <point x="490" y="163"/>
      <point x="490" y="255" type="qcurve" smooth="yes"/>
      <point x="490" y="352"/>
      <point x="411" y="462"/>
    </contour>
  </outline>
</glyph>
