<?xml version="1.0" encoding="UTF-8"?>
<glyph name="uni0AAF_uni0ABC.nukt" format="1">
  <advance width="590"/>
  <outline>
    <contour>
      <point x="78" y="25" type="qcurve" smooth="yes"/>
      <point x="108" y="25"/>
      <point x="146" y="-16"/>
      <point x="146" y="-47" type="qcurve" smooth="yes"/>
      <point x="146" y="-74"/>
      <point x="117" y="-108"/>
      <point x="89" y="-117"/>
      <point x="78" y="-117" type="qcurve" smooth="yes"/>
      <point x="37" y="-117"/>
      <point x="3" y="-68"/>
      <point x="3" y="-47" type="qcurve" smooth="yes"/>
      <point x="3" y="-16"/>
      <point x="45" y="25"/>
    </contour>
    <contour>
      <point x="555" y="-40" type="line"/>
      <point x="442" y="-40" type="line"/>
      <point x="443" y="492" type="line"/>
      <point x="555" y="492" type="line"/>
    </contour>
    <contour>
      <point x="254" y="105" type="qcurve" smooth="yes"/>
      <point x="306" y="105"/>
      <point x="425" y="156"/>
      <point x="442" y="178" type="qcurve"/>
      <point x="441" y="76" type="line"/>
      <point x="354" y="19"/>
      <point x="262" y="19" type="qcurve" smooth="yes"/>
      <point x="241" y="19"/>
      <point x="183" y="28"/>
      <point x="103" y="58"/>
      <point x="38" y="102"/>
      <point x="-8" y="182"/>
      <point x="-8" y="233" type="qcurve" smooth="yes"/>
      <point x="-8" y="239" type="line" smooth="yes"/>
      <point x="-8" y="257"/>
      <point x="24" y="282"/>
      <point x="49" y="282" type="qcurve" smooth="yes"/>
      <point x="145" y="282" type="line" smooth="yes"/>
      <point x="176" y="282"/>
      <point x="219" y="321"/>
      <point x="219" y="351" type="qcurve" smooth="yes"/>
      <point x="219" y="410"/>
      <point x="150" y="410" type="qcurve" smooth="yes"/>
      <point x="62" y="410" type="line"/>
      <point x="62" y="494" type="line"/>
      <point x="210" y="494" type="line" smooth="yes"/>
      <point x="267" y="494"/>
      <point x="338" y="409"/>
      <point x="338" y="347" type="qcurve" smooth="yes"/>
      <point x="337" y="219"/>
      <point x="213" y="217" type="qcurve" smooth="yes"/>
      <point x="199" y="217"/>
      <point x="161" y="222"/>
      <point x="151" y="222" type="qcurve" smooth="yes"/>
      <point x="125" y="222"/>
      <point x="122" y="198" type="qcurve"/>
      <point x="125" y="177" type="line"/>
      <point x="132" y="154"/>
      <point x="166" y="123"/>
      <point x="210" y="110"/>
      <point x="241" y="105"/>
    </contour>
  </outline>
</glyph>
