<?xml version="1.0" encoding="UTF-8"?>
<glyph name="uni0908" format="1">
  <advance width="463"/>
  <unicode hex="0908"/>
  <outline>
    <contour>
      <point x="309" y="616" type="line"/>
      <point x="221" y="723"/>
      <point x="221" y="800" type="qcurve" smooth="yes"/>
      <point x="221" y="854"/>
      <point x="299" y="904"/>
      <point x="351" y="904" type="qcurve" smooth="yes"/>
      <point x="393" y="904"/>
      <point x="420" y="893" type="qcurve"/>
      <point x="420" y="834" type="line"/>
      <point x="386" y="848"/>
      <point x="352" y="848" type="qcurve" smooth="yes"/>
      <point x="321" y="848"/>
      <point x="283" y="812"/>
      <point x="283" y="781" type="qcurve" smooth="yes"/>
      <point x="283" y="711"/>
      <point x="365" y="616" type="qcurve"/>
    </contour>
    <contour>
      <point x="323" y="222" type="qcurve" smooth="yes"/>
      <point x="312" y="222"/>
      <point x="224" y="200"/>
      <point x="209" y="200" type="qcurve" smooth="yes"/>
      <point x="179" y="200"/>
      <point x="101" y="269"/>
      <point x="49" y="362"/>
      <point x="49" y="394" type="qcurve" smooth="yes"/>
      <point x="49" y="415"/>
      <point x="83" y="444"/>
      <point x="107" y="444" type="qcurve" smooth="yes"/>
      <point x="301" y="444" type="line"/>
      <point x="301" y="540" type="line"/>
      <point x="0" y="540" type="line"/>
      <point x="0" y="613" type="line"/>
      <point x="464" y="613" type="line"/>
      <point x="464" y="540" type="line"/>
      <point x="374" y="540" type="line"/>
      <point x="374" y="370" type="line"/>
      <point x="140" y="370" type="line" smooth="yes"/>
      <point x="133" y="370"/>
      <point x="133" y="364" type="qcurve" smooth="yes"/>
      <point x="133" y="348"/>
      <point x="205" y="271"/>
      <point x="225" y="271" type="qcurve" smooth="yes"/>
      <point x="226" y="271"/>
      <point x="277" y="285"/>
      <point x="334" y="297"/>
      <point x="347" y="297" type="qcurve" smooth="yes"/>
      <point x="381" y="297"/>
      <point x="429" y="238"/>
      <point x="429" y="206" type="qcurve" smooth="yes"/>
      <point x="429" y="63"/>
      <point x="289" y="19" type="qcurve"/>
      <point x="305" y="-5"/>
      <point x="405" y="-87"/>
      <point x="428" y="-88" type="qcurve"/>
      <point x="383" y="-151" type="line"/>
      <point x="344" y="-127"/>
      <point x="276" y="-71"/>
      <point x="242" y="-37"/>
      <point x="198" y="8" type="qcurve"/>
      <point x="45" y="8"/>
      <point x="42" y="99" type="qcurve"/>
      <point x="42" y="130"/>
      <point x="86" y="160"/>
      <point x="104" y="160" type="qcurve" smooth="yes"/>
      <point x="130" y="160"/>
      <point x="183" y="128"/>
      <point x="208" y="101"/>
      <point x="235" y="70" type="qcurve"/>
      <point x="276" y="70"/>
      <point x="354" y="126"/>
      <point x="355" y="169" type="qcurve" smooth="yes"/>
      <point x="355" y="200"/>
      <point x="341" y="222"/>
    </contour>
  </outline>
</glyph>
