<?xml version="1.0" encoding="UTF-8"?>
<glyph name="uni0AAE_uni0ACD.half_uni0AB0_uni0ACD.blwf.vatu" format="1">
  <advance width="328"/>
  <outline>
    <contour>
      <point x="102" y="488" type="qcurve" smooth="yes"/>
      <point x="171" y="488"/>
      <point x="225" y="432"/>
      <point x="225" y="376" type="qcurve" smooth="yes"/>
      <point x="225" y="274" type="line"/>
      <point x="330" y="274" type="line"/>
      <point x="329" y="189" type="line"/>
      <point x="225" y="189" type="line"/>
      <point x="225" y="154" type="line" smooth="yes"/>
      <point x="225" y="125"/>
      <point x="166" y="86"/>
      <point x="121" y="86" type="qcurve" smooth="yes"/>
      <point x="68" y="86"/>
      <point x="24" y="143"/>
      <point x="24" y="181" type="qcurve" smooth="yes"/>
      <point x="24" y="275"/>
      <point x="120" y="275" type="qcurve"/>
      <point x="120" y="332" type="line" smooth="yes"/>
      <point x="120" y="373"/>
      <point x="106" y="406"/>
      <point x="84" y="406" type="qcurve" smooth="yes"/>
      <point x="65" y="406"/>
      <point x="13" y="396"/>
      <point x="13" y="393" type="qcurve" smooth="yes"/>
      <point x="13" y="479" type="line"/>
      <point x="62" y="488"/>
    </contour>
    <contour>
      <point x="330" y="21" type="line"/>
      <point x="107" y="-80" type="line"/>
      <point x="50" y="-10" type="line"/>
      <point x="330" y="83" type="line"/>
    </contour>
  </outline>
</glyph>
