<?xml version="1.0" encoding="UTF-8"?>
<glyph name="uni1F87" format="1">
  <advance width="596"/>
  <unicode hex="1F87"/>
  <outline>
    <component base="uni037A" xOffset="114" yOffset="5"/>
    <component base="uni1F07"/>
  </outline>
</glyph>
