<?xml version="1.0" encoding="UTF-8"?>
<glyph name="uni1FE6" format="1">
  <advance width="515"/>
  <unicode hex="1FE6"/>
  <outline>
    <component base="tilde" xOffset="97" yOffset="-13"/>
    <component base="upsilon"/>
  </outline>
</glyph>
