<?xml version="1.0" encoding="UTF-8"?>
<glyph name="uni10D1" format="1">
  <advance width="491"/>
  <unicode hex="10D1"/>
  <outline>
    <contour>
      <point x="461" y="198" type="qcurve" smooth="yes"/>
      <point x="461" y="109"/>
      <point x="337" y="0"/>
      <point x="155" y="0"/>
      <point x="30" y="108"/>
      <point x="30" y="198" type="qcurve" smooth="yes"/>
      <point x="30" y="283"/>
      <point x="144" y="405"/>
      <point x="229" y="421" type="qcurve"/>
      <point x="229" y="606" type="line"/>
      <point x="116" y="606" type="line" smooth="yes"/>
      <point x="72" y="606"/>
      <point x="72" y="640" type="qcurve" smooth="yes"/>
      <point x="72" y="720" type="line"/>
      <point x="142" y="720" type="line"/>
      <point x="142" y="681"/>
      <point x="151" y="664"/>
      <point x="171" y="664" type="qcurve" smooth="yes"/>
      <point x="303" y="664" type="line"/>
      <point x="292" y="421" type="line"/>
      <point x="368" y="392"/>
      <point x="461" y="275"/>
    </contour>
    <contour>
      <point x="391" y="198" type="qcurve" smooth="yes"/>
      <point x="391" y="289"/>
      <point x="320" y="338" type="qcurve" smooth="yes"/>
      <point x="278" y="367"/>
      <point x="242" y="367" type="qcurve" smooth="yes"/>
      <point x="227" y="367"/>
      <point x="178" y="345"/>
      <point x="164" y="333" type="qcurve" smooth="yes"/>
      <point x="100" y="281"/>
      <point x="100" y="198" type="qcurve" smooth="yes"/>
      <point x="100" y="136"/>
      <point x="184" y="50"/>
      <point x="308" y="50"/>
      <point x="391" y="136"/>
    </contour>
  </outline>
</glyph>
