<?xml version="1.0" encoding="UTF-8"?>
<glyph name="uni2525" format="1">
  <advance width="1000"/>
  <unicode hex="2525"/>
  <outline>
    <component base="uni251D" xScale="-1" yScale="-1" xOffset="1000" yOffset="600"/>
  </outline>
</glyph>
