<?xml version="1.0" encoding="UTF-8"?>
<glyph name="uni2177" format="1">
  <advance width="1166"/>
  <unicode hex="2177"/>
  <outline>
    <component base="i" xOffset="1095"/>
    <component base="i" xOffset="873"/>
    <component base="i" xOffset="651"/>
    <component base="v" xOffset="68"/>
  </outline>
</glyph>
