<?xml version="1.0" encoding="UTF-8"?>
<glyph name="uni918_930_94D.blwf.vatu" format="1">
  <advance width="575"/>
  <outline>
    <contour>
      <point x="234" y="322" type="line" smooth="yes"/>
      <point x="203" y="322"/>
      <point x="147" y="283"/>
      <point x="146" y="254" type="qcurve" smooth="yes"/>
      <point x="146" y="228"/>
      <point x="190" y="193"/>
      <point x="231" y="193" type="qcurve" smooth="yes"/>
      <point x="314" y="193"/>
      <point x="434" y="271" type="qcurve"/>
      <point x="434" y="541" type="line"/>
      <point x="158" y="541" type="line"/>
      <point x="156" y="538"/>
      <point x="136" y="521"/>
      <point x="114" y="484"/>
      <point x="114" y="467" type="qcurve" smooth="yes"/>
      <point x="114" y="440"/>
      <point x="188" y="395"/>
      <point x="216" y="395" type="qcurve" smooth="yes"/>
      <point x="291" y="395" type="line"/>
      <point x="332" y="322" type="line"/>
    </contour>
    <contour>
      <point x="129" y="355" type="qcurve"/>
      <point x="85" y="364"/>
      <point x="43" y="446"/>
      <point x="43" y="479" type="qcurve" smooth="yes"/>
      <point x="43" y="517"/>
      <point x="68" y="541" type="qcurve"/>
      <point x="0" y="541" type="line"/>
      <point x="0" y="613" type="line"/>
      <point x="575" y="613" type="line"/>
      <point x="575" y="541" type="line"/>
      <point x="505" y="541" type="line"/>
      <point x="505" y="6" type="line"/>
      <point x="434" y="6" type="line"/>
      <point x="434" y="105" type="line"/>
      <point x="189" y="-55" type="line"/>
      <point x="144" y="1" type="line"/>
      <point x="434" y="188" type="line"/>
      <point x="408" y="175"/>
      <point x="354" y="145"/>
      <point x="275" y="121"/>
      <point x="240" y="121" type="qcurve" smooth="yes"/>
      <point x="223" y="121"/>
      <point x="176" y="132"/>
      <point x="116" y="158"/>
      <point x="75" y="214"/>
      <point x="75" y="252" type="qcurve" smooth="yes"/>
      <point x="75" y="310"/>
    </contour>
  </outline>
</glyph>
