<?xml version="1.0" encoding="UTF-8"?>
<glyph name="yacute" format="1">
  <advance width="634"/>
  <unicode hex="00FD"/>
  <outline>
    <contour>
      <point x="365" y="739" type="line"/>
      <point x="478" y="739" type="line"/>
      <point x="329" y="591" type="line"/>
      <point x="269" y="591" type="line"/>
    </contour>
    <contour>
      <point x="52" y="456" type="line"/>
      <point x="52" y="524" type="line"/>
      <point x="205" y="524" type="line"/>
      <point x="339" y="116" type="line"/>
      <point x="460" y="456" type="line"/>
      <point x="413" y="456" type="line"/>
      <point x="413" y="524" type="line"/>
      <point x="574" y="524" type="line"/>
      <point x="341" y="-110" type="line"/>
      <point x="300" y="-218"/>
      <point x="206" y="-218" type="qcurve" smooth="yes"/>
      <point x="175" y="-218"/>
      <point x="150" y="-205" type="qcurve"/>
      <point x="150" y="-130" type="line"/>
      <point x="177" y="-136"/>
      <point x="194" y="-136" type="qcurve" smooth="yes"/>
      <point x="220" y="-136"/>
      <point x="235" y="-124" type="qcurve" smooth="yes"/>
      <point x="250" y="-113"/>
      <point x="261" y="-85" type="qcurve" smooth="yes"/>
      <point x="293" y="-2" type="line"/>
      <point x="139" y="456" type="line"/>
    </contour>
  </outline>
</glyph>
